{
    "name": "EltaninEntertainment.CardMaker",
    "rootNamespace": "EltaninEntertainment.CardMaker",
    "references": [
        "EltaninEntertainment.Commons",
        "Unity.TextMeshPro"
    ],
    "includePlatforms": [],
    "excludePlatforms": [],
    "allowUnsafeCode": false,
    "overrideReferences": false,
    "precompiledReferences": [],
    "autoReferenced": true,
    "defineConstraints": [],
    "versionDefines": [],
    "noEngineReferences": false
}