%YAML 1.1
%TAG !u! tag:unity3d.com,2011:
--- !u!114 &11400000
MonoBehaviour:
  m_ObjectHideFlags: 0
  m_CorrespondingSourceObject: {fileID: 0}
  m_PrefabInstance: {fileID: 0}
  m_PrefabAsset: {fileID: 0}
  m_GameObject: {fileID: 0}
  m_Enabled: 1
  m_EditorHideFlags: 0
  m_Script: {fileID: 11500000, guid: 272fc38ef872b4844aa3cb4f9cde0079, type: 3}
  m_Name: 01546123
  m_EditorClassIdentifier: 
  _cardId: 01546123
  _cardName: Cyber End Dragon
  _material: {fileID: 2100000, guid: 270793b781aace44598b0fe0f7b885aa, type: 2}
  _availableRarities: 14
  _rarities:
  - {fileID: 0}
  - {fileID: 2100000, guid: db8195e788985f545a896969dfd81a57, type: 2}
  - {fileID: 2100000, guid: 943e2d5b6421efd4ebb3d930285623fc, type: 2}
  - {fileID: 2100000, guid: 270793b781aace44598b0fe0f7b885aa, type: 2}
  - {fileID: 0}
