%YAML 1.1
%TAG !u! tag:unity3d.com,2011:
--- !u!114 &11400000
MonoBehaviour:
  m_ObjectHideFlags: 0
  m_CorrespondingSourceObject: {fileID: 0}
  m_PrefabInstance: {fileID: 0}
  m_PrefabAsset: {fileID: 0}
  m_GameObject: {fileID: 0}
  m_Enabled: 1
  m_EditorHideFlags: 0
  m_Script: {fileID: 11500000, guid: 272fc38ef872b4844aa3cb4f9cde0079, type: 3}
  m_Name: 18967507
  m_EditorClassIdentifier: 
  _cardId: 18967507
  _cardName: Cyberdarkness Dragon
  _material: {fileID: 2100000, guid: a8d3dc00d0a26ef408837a737e209c70, type: 2}
  _availableRarities: 30
  _rarities:
  - {fileID: 0}
  - {fileID: 2100000, guid: 90a53720a6c2f3e4da95181ac86d2deb, type: 2}
  - {fileID: 2100000, guid: 02209b13810eec24f8b520d4a59a4ec2, type: 2}
  - {fileID: 2100000, guid: a8d3dc00d0a26ef408837a737e209c70, type: 2}
  - {fileID: 2100000, guid: c695ba1c3db0966488fbd7e3a2da825b, type: 2}
