%YAML 1.1
%TAG !u! tag:unity3d.com,2011:
--- !u!114 &11400000
MonoBehaviour:
  m_ObjectHideFlags: 0
  m_CorrespondingSourceObject: {fileID: 0}
  m_PrefabInstance: {fileID: 0}
  m_PrefabAsset: {fileID: 0}
  m_GameObject: {fileID: 0}
  m_Enabled: 1
  m_EditorHideFlags: 0
  m_Script: {fileID: 11500000, guid: 272fc38ef872b4844aa3cb4f9cde0079, type: 3}
  m_Name: 23893227
  m_EditorClassIdentifier: 
  _cardId: 23893227
  _cardName: Cyber Dragon Core
  _material: {fileID: 2100000, guid: 8482b9ca2528810439c87ada853180f1, type: 2}
  _rarity:
    _commonMaterial: {fileID: 0}
    _superMaterial: {fileID: 2100000, guid: da826e6348b8fd8448d3b4dd9e3cc55e, type: 2}
    _ultraMaterial: {fileID: 2100000, guid: b36d73ffc042315459bbdc072615b769, type: 2}
    _secretMaterial: {fileID: 2100000, guid: 8482b9ca2528810439c87ada853180f1, type: 2}
  _availableRarities: 14
  _rarities:
  - {fileID: 0}
  - {fileID: 2100000, guid: da826e6348b8fd8448d3b4dd9e3cc55e, type: 2}
  - {fileID: 2100000, guid: b36d73ffc042315459bbdc072615b769, type: 2}
  - {fileID: 2100000, guid: 8482b9ca2528810439c87ada853180f1, type: 2}
  - {fileID: 0}
