%YAML 1.1
%TAG !u! tag:unity3d.com,2011:
--- !u!114 &-2854399453906363260
MonoBehaviour:
  m_ObjectHideFlags: 11
  m_CorrespondingSourceObject: {fileID: 0}
  m_PrefabInstance: {fileID: 0}
  m_PrefabAsset: {fileID: 0}
  m_GameObject: {fileID: 0}
  m_Enabled: 1
  m_EditorHideFlags: 0
  m_Script: {fileID: 11500000, guid: d0353a89b1f911e48b9e16bdc9f2e058, type: 3}
  m_Name: 
  m_EditorClassIdentifier: 
  version: 6
--- !u!21 &2100000
Material:
  serializedVersion: 8
  m_ObjectHideFlags: 0
  m_CorrespondingSourceObject: {fileID: 0}
  m_PrefabInstance: {fileID: 0}
  m_PrefabAsset: {fileID: 0}
  m_Name: MTL_Rayquaza-V_Direction
  m_Shader: {fileID: -6465566751694194690, guid: b28acad67a6355d49a442edf09b31df4, type: 3}
  m_Parent: {fileID: 0}
  m_ModifiedSerializedProperties: 0
  m_ValidKeywords: []
  m_InvalidKeywords: []
  m_LightmapFlags: 4
  m_EnableInstancingVariants: 0
  m_DoubleSidedGI: 0
  m_CustomRenderQueue: -1
  stringTagMap: {}
  disabledShaderPasses: []
  m_LockedProperties: 
  m_SavedProperties:
    serializedVersion: 3
    m_TexEnvs:
    - Foil:
        m_Texture: {fileID: 2800000, guid: 96ccdab65e3d3f441ad2f896283ae11e, type: 3}
        m_Scale: {x: 1, y: 1}
        m_Offset: {x: 0, y: 0}
    - FoilGradient:
        m_Texture: {fileID: 2800000, guid: 8628393e2525ad34cb29c409324058cf, type: 3}
        m_Scale: {x: 1, y: 1}
        m_Offset: {x: 0, y: 0}
    - Image:
        m_Texture: {fileID: 2800000, guid: cebeffb4ec523fc44904c860fff96308, type: 3}
        m_Scale: {x: 1, y: 1}
        m_Offset: {x: 0, y: 0}
    - Normal:
        m_Texture: {fileID: 0}
        m_Scale: {x: 1, y: 1}
        m_Offset: {x: 0, y: 0}
    - Render:
        m_Texture: {fileID: 0}
        m_Scale: {x: 1, y: 1}
        m_Offset: {x: 0, y: 0}
    - unity_Lightmaps:
        m_Texture: {fileID: 0}
        m_Scale: {x: 1, y: 1}
        m_Offset: {x: 0, y: 0}
    - unity_LightmapsInd:
        m_Texture: {fileID: 0}
        m_Scale: {x: 1, y: 1}
        m_Offset: {x: 0, y: 0}
    - unity_ShadowMasks:
        m_Texture: {fileID: 0}
        m_Scale: {x: 1, y: 1}
        m_Offset: {x: 0, y: 0}
    m_Ints: []
    m_Floats:
    - Alpha: 1
    - Contrast: 0.7
    - Metallic: 0
    - OffsetX: 0
    - OffsetY: 0
    - RenderTolerance: 0.45
    - Smoothness: 0
    - Tiling: 1
    - _DirectionalOffset: 2
    - _QueueControl: 0
    - _QueueOffset: 0
    m_Colors:
    - Colour: {r: 1, g: 1, b: 1, a: 1}
    - GradientOffset: {r: -0.08, g: 0.08, b: 0, a: 0}
  m_BuildTextureStacks: []
