%YAML 1.1
%TAG !u! tag:unity3d.com,2011:
--- !u!114 &11400000
MonoBehaviour:
  m_ObjectHideFlags: 0
  m_CorrespondingSourceObject: {fileID: 0}
  m_PrefabInstance: {fileID: 0}
  m_PrefabAsset: {fileID: 0}
  m_GameObject: {fileID: 0}
  m_Enabled: 1
  m_EditorHideFlags: 0
  m_Script: {fileID: 11500000, guid: ed02236410518ff4f8799dd8577191d2, type: 3}
  m_Name: CardVisualsData
  m_EditorClassIdentifier: 
  _cardFrames:
  - {fileID: 21300000, guid: a9cdf9df1247a5f47a8b139fb3af38f5, type: 3}
  - {fileID: 0}
  - {fileID: 21300000, guid: de8983698d5cf6c41aa4967b3b2eb563, type: 3}
  - {fileID: 0}
  - {fileID: 21300000, guid: fe3d700fe87b0084188412eec99e454c, type: 3}
  - {fileID: 0}
  - {fileID: 21300000, guid: 52bbee7b8ad904e4aa1a6f512f7be9b9, type: 3}
  - {fileID: 0}
  - {fileID: 21300000, guid: cb1090472f7190d4ba78f04171006139, type: 3}
  - {fileID: 0}
  - {fileID: 21300000, guid: 1d9160d8298373b4b9ad290913a8c344, type: 3}
  - {fileID: 0}
  - {fileID: 21300000, guid: 965210b1a5ef372409f74d1837e159ef, type: 3}
  - {fileID: 21300000, guid: f1540eeb278e6f547bfcdc4bf1349776, type: 3}
  - {fileID: 21300000, guid: 0c2c65e27820aa54aa380356d404f522, type: 3}
  - {fileID: 21300000, guid: 1f20771c8583db4488d9735c7f93d18d, type: 3}
  _cardAttributes:
  - {fileID: 21300000, guid: d1808faf57aab3c44a18383fa1fb1ae7, type: 3}
  - {fileID: 21300000, guid: 498595292d6c28645b72867cb70da96b, type: 3}
  - {fileID: 21300000, guid: 229cacc5824e3f54890965e00988cee9, type: 3}
  - {fileID: 21300000, guid: 4fce0463cf74ad54bae840e53e84ae7b, type: 3}
  - {fileID: 21300000, guid: 1c02d2b82b757ae4988c9c73c8893c9b, type: 3}
  - {fileID: 21300000, guid: c0dcd9a96640a5a4dab3213aa3f225fe, type: 3}
  - {fileID: 21300000, guid: bed630030af92e14c86718145a041fbd, type: 3}
  - {fileID: 21300000, guid: 9fbc5963114c17f4e9c9be09c3a5e454, type: 3}
  - {fileID: 21300000, guid: 3323ef9d613e004429d4c1cbe083bfb8, type: 3}
